Qualitative guide for R - 3 — Group and code responses
…
words <- tv_ratings %>%
         unnest_tokens(word, description, drop = FALSE)

Join the parent/child nodes table

tagged <- left_join(words, nodes, by = join_by(word == child)) %>%
  left_join(nodes, by = join_by(word == child_plural)) %>%
  mutate(parent = coalesce(parent.x, parent.y),
         child = coalesce(child, word),
         .keep = "unused"
         ) 

tagged

# A tibble: 187,997 × 15
   show_id type    title director cast    country date_added release_year rating
   <chr>   <chr>   <chr> <chr>    <chr>   <chr>   <chr>             <dbl> <chr> 
 1 s1      TV Show 3%    <NA>     João M… Brazil  August 14…         2020 TV-MA 
 2 s1      TV Show 3%    <NA>     João M… Brazil  August 14…         2020 TV-MA 
 3 s1      TV Show 3%    <NA>     João M… Brazil  August 14…         2020 TV-MA 
 4 s1      TV Show 3%    <NA>     João M… Brazil  August 14…         2020 TV-MA 
 5 s1      TV Show 3%    <NA>     João M… Brazil  August 14…         2020 TV-MA 
 6 s1      TV Show 3%    <NA>     João M… Brazil  August 14…         2020 TV-MA 
 7 s1      TV Show 3%    <NA>     João M… Brazil  August 14…         2020 TV-MA 
 8 s1      TV Show 3%    <NA>     João M… Brazil  August 14…         2020 TV-MA 
 9 s1      TV Show 3%    <NA>     João M… Brazil  August 14…         2020 TV-MA 
10 s1      TV Show 3%    <NA>     João M… Brazil  August 14…         2020 TV-MA 
# ℹ 187,987 more rows
# ℹ 6 more variables: duration <chr>, genre <chr>, description <chr>,
#   child_plural <chr>, child <chr>, parent <chr>

Drop the…

tagged %>%
  drop_na(parent) %>%
  select(-child_plural,
         -child,
         child)

# A tibble: 5,259 × 14
   show_id type    title  director  cast  country date_added release_year rating
   <chr>   <chr>   <chr>  <chr>     <chr> <chr>   <chr>             <dbl> <chr> 
 1 s2      Movie   7:19   Jorge Mi… Demi… Mexico  December …         2016 TV-MA 
 2 s4      Movie   9      Shane Ac… Elij… United… November …         2009 PG-13 
 3 s7      Movie   122    Yasir Al… Amin… Egypt   June 1, 2…         2019 TV-MA 
 4 s8      Movie   187    Kevin Re… Samu… United… November …         1997 R     
 5 s8      Movie   187    Kevin Re… Samu… United… November …         1997 R     
 6 s8      Movie   187    Kevin Re… Samu… United… November …         1997 R     
 7 s11     Movie   1922   Zak Hild… Thom… United… October 2…         2017 TV-MA 
 8 s11     Movie   1922   Zak Hild… Thom… United… October 2…         2017 TV-MA 
 9 s12     TV Show 1983   <NA>      Robe… Poland… November …         2018 TV-MA 
10 s16     Movie   Oct-01 Kunle Af… Sadi… Nigeria September…         2014 TV-14 
# ℹ 5,249 more rows
# ℹ 5 more variables: duration <chr>, genre <chr>, description <chr>,
#   parent <chr>, child <chr>
